/home/greatbean/eclipse-workspace/gs-rest-service-initial/src/main/java/customerservice/service/customer/CustomerServiceImpl.java
/home/greatbean/eclipse-workspace/gs-rest-service-initial/src/main/java/customerservice/controller/ContractController.java
/home/greatbean/eclipse-workspace/gs-rest-service-initial/src/main/java/customerservice/controller/CustomerController.java
/home/greatbean/eclipse-workspace/gs-rest-service-initial/src/main/java/customerservice/Application.java
/home/greatbean/eclipse-workspace/gs-rest-service-initial/src/main/java/customerservice/model/Customer.java
/home/greatbean/eclipse-workspace/gs-rest-service-initial/src/main/java/customerservice/model/Contract.java
/home/greatbean/eclipse-workspace/gs-rest-service-initial/src/main/java/customerservice/service/contract/ContractService.java
/home/greatbean/eclipse-workspace/gs-rest-service-initial/src/main/java/customerservice/service/customer/CustomerService.java
/home/greatbean/eclipse-workspace/gs-rest-service-initial/src/main/java/customerservice/service/contract/ContractServiceImpl.java
